…
HolidayList
# A tibble: 54 x 1
#      Holidays  
#        &lt;date&gt;    
#  1 2018-01-13
#  2 2018-01-27
#  3 2018-02-10
#  4 2018-02-24
#  5 2018-03-10
#  6 2018-03-24
#  7 2018-04-14
#  8 2018-04-28
#  9 2018-05-12
# 10 2018-05-26
# ... with 44 more rows
…
